[gd_scene load_steps=4 format=2]

[ext_resource path="res://bullet.gd" type="Script" id=1]

[sub_resource type="NoiseTexture" id=1]
width = 64
height = 4

[sub_resource type="RectangleShape2D" id=2]
extents = Vector2( 32, 2 )

[node name="Bullet" type="KinematicBody2D"]
collision_layer = 4
script = ExtResource( 1 )

[node name="Sprite" type="Sprite" parent="."]
texture = SubResource( 1 )
offset = Vector2( 32, 0 )

[node name="CollisionShape2D" type="CollisionShape2D" parent="."]
position = Vector2( 32, 0 )
shape = SubResource( 2 )
__meta__ = {
"_edit_group_": true
}

[node name="Life" type="Timer" parent="."]
wait_time = 2.0
one_shot = true
autostart = true
[connection signal="timeout" from="Life" to="." method="_on_Life_timeout"]
