[gd_scene load_steps=3 format=2]

[ext_resource path="res://dynamic_props/dynamic_prop.gd" type="Script" id=1]

[sub_resource type="RectangleShape2D" id=1]
extents = Vector2( 64, 64 )

[node name="Target" type="KinematicBody2D"]
script = ExtResource( 1 )

[node name="CollisionShape2D" type="CollisionShape2D" parent="."]
shape = SubResource( 1 )

[node name="Polygon2D" type="Polygon2D" parent="."]
color = Color( 0.176471, 0.772549, 0.14902, 1 )
polygon = PoolVector2Array( -64, 64, 64, 64, 64, -64, -64, -64 )
